…
データは `tibble` として読み込まれました。
データに大きな問題がなければ、各列の型・タイプ (type)^[他に: \<lgl\> logical、 論理値；\<int\> integer、 整数；\<dttm\> datetime、日時 などもあります。] は自動的に設定されます。

* `調査海域` の列は `<chr>` : character, 文字列
* `海藻` の列は `<dbl>`: double, ダブル・数値・実数
* `海草` の列は `<dbl>`: double, ダブル・数値・実数

変数名が日本語の場合、コードが書きづらくなったり、バグの原因になります。
最初から英語表記にするのが合理的ですが、R環境内で名前を変換することは難しくないです。
とりあえず `d19` の内容をみましょう。


```r
d19 # FY1990 データの内容
#> # A tibble: 23 × 3
#>    調査海域  海藻  海草
#>    <chr>    <dbl> <dbl>
#>  1 東部        55    14
#>  2 東部       128    62
#>  3 東部        86     0
#>  4 東部        87     8
#>  5 東部       214    54
#>  6 東部       140    57
#>  7 中部        30    45
#>  8 中部         5   623
#>  9 中部       460   886
#> 10 中部        51   180
#> # … with 13 more rows
```
…
では、次は `seaweed` と `seagrass` を縦に結合することです。
複数の `tibble` を縦に結合するための関数は `bind_rows()` です。


```r
d20 = bind_rows(seaweed = seaweed, seagrass = seagrass, .id = "type")
```

`seaweed` に `seaweed`、`seagrass` に `seagrass` を渡します。
さらに、`seaweed` と `seagrass` を `type` 変数に書き込みます。


```r
d20　# FY2018 データ
#> # A tibble: 54 × 3
#>    type    name  value
#>    <chr>   <chr> <dbl>
#>  1 seaweed 東部     14
#>  2 seaweed 中部     62
#>  3 seaweed 西部    108
#>  4 seaweed 東部     93
#>  5 seaweed 中部    838
#>  6 seaweed 西部      0
#>  7 seaweed 東部     12
#>  8 seaweed 中部    933
#>  9 seaweed 西部      0
#> 10 seaweed 東部      8
#> # … with 44 more rows
```

実は、次のように `bind_rows()` を実行できますが、データの構造は不都合になります。
どちらも 2つの `tibble` を縦に結合してくれますが、結果は全く違います。
コードと結果の違いをよく確認して、その違いを理解しましょう。


```r
bind_rows(seaweed, seagrass)
#> # A tibble: 54 × 2
#>    name  value
#>    <chr> <dbl>
#>  1 東部     14
#>  2 中部     62
#>  3 西部    108
#>  4 東部     93
#>  5 中部    838
#>  6 西部      0
#>  7 東部     12
#>  8 中部    933
#>  9 西部      0
#> 10 東部      8
#> # … with 44 more rows
```
…
```r
d20 = d20 |> unnest(c(seaweed, seagrass))
d20
#> # A tibble: 27 × 3
#>    name  seaweed seagrass
#>    <chr>   <dbl>    <dbl>
#>  1 東部       14       71
#>  2 東部       93      145
#>  3 東部       12       94
#>  4 東部        8       82
#>  5 東部      444       49
#>  6 東部       85      100
#>  7 東部       NA       NA
#>  8 東部       NA       NA
#>  9 東部       NA       NA
#> 10 中部       62       63
#> # … with 17 more rows
```

さらに、`name` を `site` (調査海域) に変更します。


```r
d20 = d20 |> rename(site = name)
d20
#> # A tibble: 27 × 3
#>    site  seaweed seagrass
#>    <chr>   <dbl>    <dbl>
#>  1 東部       14       71
#>  2 東部       93      145
#>  3 東部       12       94
#>  4 東部        8       82
#>  5 東部      444       49
#>  6 東部       85      100
#>  7 東部       NA       NA
#>  8 東部       NA       NA
#>  9 東部       NA       NA
#> 10 中部       62       63
#> # … with 17 more rows
```

最後に、`d20` の `NA` データを外します。


```r
d20 = d20 |> drop_na() # NAを外す
d20
#> # A tibble: 23 × 3
#>    site  seaweed seagrass
#>    <chr>   <dbl>    <dbl>
#>  1 東部       14       71
#>  2 東部       93      145
#>  3 東部       12       94
#>  4 東部        8       82
#>  5 東部      444       49
#>  6 東部       85      100
#>  7 中部       62       63
#>  8 中部      838        5
#>  9 中部      933      674
#> 10 中部      193       69
#> # … with 13 more rows
```
…
