…
データは `tibble` として読み込まれました。
データに大きな問題がなければ、各列の型・タイプ (type)^[他に: \<lgl\> logical、 論理値；\<int\> integer、 整数；\<dttm\> datetime、日時 などもあります。] は自動的に設定されます。

* `調査海域` の列は `<chr>` : character, 文字列
* `海藻` の列は `<dbl>`: double, ダブル・数値・実数
* `海草` の列は `<dbl>`: double, ダブル・数値・実数

変数名が日本語の場合、コードが書きづらくなったり、バグの原因になります。
最初から英語表記にするのが合理的ですが、R環境内で名前を変換することは難しくないです。
とりあえず `d19` の内容をみましょう。


```r
d19 # FY1990 データの内容
#> # A tibble: 23 × 3
#>    調査海域  海藻  海草
#>    <chr>    <dbl> <dbl>
#>  1 東部        55    14
#>  2 東部       128    62
#>  3 東部        86     0
#>  4 東部        87     8
#>  5 東部       214    54
#>  6 東部       140    57
#>  7 中部        30    45
#>  8 中部         5   623
#>  9 中部       460   886
#> 10 中部        51   180
#> # … with 13 more rows
```
…
