…
```r
mlit1 |> ggplot() + geom_sf()
```

<img src="50-maps_files/figure-html/unnamed-chunk-12-1.png" width="90%" style="display: block; margin: auto;" />

## 調査地点のデータを準備する

形上湾アマモ場調査のステーションの GPS `tibble` を準備する。


```r
zostera = read_csv("~/Lab_Data/matsumuro/Katagami_Bay/longlat_info.csv")
zostera |> print(n = 3)
#> # A tibble: 105 × 6
#>    Name   lat  long datetime            eelgrass
#>   <dbl> <dbl> <dbl> <dttm>              <chr>   
#> 1     1  33.0  130. 2021-05-25 09:14:48 absent  
#> 2     2  33.0  130. 2021-05-25 09:30:32 absent  
#> 3     3  33.0  130. 2021-05-25 09:37:16 present 
#> # … with 102 more rows, and 1 more variable:
#> #   `coverage(%)` <dbl>
```

`zostera` に緯度経度を設定する。
CRS は `mlit` と同じにします。


```r
zostera = zostera |> st_as_sf(coords = c("long", "lat"), crs = st_crs(mlit))
zostera |> print(n = 3)
#> Simple feature collection with 105 features and 4 fields
#> Geometry type: POINT
#> Dimension:     XY
#> Bounding box:  xmin: 129.7845 ymin: 32.90032 xmax: 129.806 ymax: 32.95375
#> Geodetic CRS:  JGD2011
#> # A tibble: 105 × 5
#>    Name datetime            eelgrass `coverage(%)`
#> * <dbl> <dttm>              <chr>            <dbl>
#> 1     1 2021-05-25 09:14:48 absent               0
#> 2     2 2021-05-25 09:30:32 absent               0
#> 3     3 2021-05-25 09:37:16 present              5
#> # … with 102 more rows, and 1 more variable:
#> #   geometry <POINT [°]>
```
…
