Chapter 2 データの処理 | データ解析マニュアル
…
seagrass も同じように処理しました。

seagrass = seagrass |> pivot_longer(cols = everything())

では、次は seaweed と seagrass を縦に結合することです。
複数の tibble を縦に結合するための関数は bind_rows() です。

d20 = bind_rows(seaweed = seaweed, seagrass = seagrass, .id = "type")

seaweed に seaweed、seagrass に seagrass を渡します。
さらに、seaweed と seagrass を type 変数に書き込みます。

d20　# FY2018 データ
#> # A tibble: 54 × 3
#>    type    name  value
#>    <chr>   <chr> <dbl>
#>  1 seaweed 東部     14
#>  2 seaweed 中部     62
#>  3 seaweed 西部    108
#>  4 seaweed 東部     93
#>  5 seaweed 中部    838
#>  6 seaweed 西部      0
#>  7 seaweed 東部     12
#>  8 seaweed 中部    933
#>  9 seaweed 西部      0
#> 10 seaweed 東部      8
#> # … with 44 more rows

実は、次のように bind_rows() を実行できますが、データの構造は不都合になります。
どちらも 2つの tibble を縦に結合してくれますが、結果は全く違います。
コードと結果の違いをよく確認して、その違いを理解しましょう。

bind_rows(seaweed, seagrass)
#> # A tibble: 54 × 2
#>    name  value
#>    <chr> <dbl>
#>  1 東部     14
#>  2 中部     62
#>  3 西部    108
#>  4 東部     93
#>  5 中部    838
#>  6 西部      0
#>  7 東部     12
#>  8 中部    933
#>  9 西部      0
#> 10 東部      8
#> # … with 44 more rows
…
このように処理したら、Warning message がでます。
Warning (ウォーニング) は Error (エラー) ほどの問題ではないので、コードは実行されています。
Error の場合はコードは実行されません。
この Warning で values are not uniquely identified と返ってきました。
つまり、各サンプルの値は、区別することができないと意味します。
このデータの場合は、区別しなくても問題ないので、このまま解析を続きます。
それにしても、seaweed と seagrass の変数 type は <list> です。
それぞれの変数の要素に <dbl [9]> と記述されています。
各要素に 9つの値が入力されていると意味します。
研究室では、seaweed と seagrass 変数は nested (ネスト) または、「たたまれている」といいます。
では、この２つの変数を unnest (アンネスト) します。

d20 = d20 |> unnest(c(seaweed, seagrass))
d20
#> # A tibble: 27 × 3
#>    name  seaweed seagrass
#>    <chr>   <dbl>    <dbl>
#>  1 東部       14       71
#>  2 東部       93      145
#>  3 東部       12       94
#>  4 東部        8       82
#>  5 東部      444       49
#>  6 東部       85      100
#>  7 東部       NA       NA
#>  8 東部       NA       NA
#>  9 東部       NA       NA
#> 10 中部       62       63
#> # … with 17 more rows

さらに、name を site (調査海域) に変更します。

d20 = d20 |> rename(site = name)
d20
#> # A tibble: 27 × 3
#>    site  seaweed seagrass
#>    <chr>   <dbl>    <dbl>
#>  1 東部       14       71
#>  2 東部       93      145
#>  3 東部       12       94
#>  4 東部        8       82
#>  5 東部      444       49
#>  6 東部       85      100
#>  7 東部       NA       NA
#>  8 東部       NA       NA
#>  9 東部       NA       NA
#> 10 中部       62       63
#> # … with 17 more rows

最後に、d20 の NA データを外します。

d20 = d20 |> drop_na() # NAを外す
d20
#> # A tibble: 23 × 3
#>    site  seaweed seagrass
#>    <chr>   <dbl>    <dbl>
#>  1 東部       14       71
#>  2 東部       93      145
#>  3 東部       12       94
#>  4 東部        8       82
#>  5 東部      444       49
#>  6 東部       85      100
#>  7 中部       62       63
#>  8 中部      838        5
#>  9 中部      933      674
#> 10 中部      193       69
#> # … with 13 more rows
…
