Chapter 15 冗長性分析 (RDA) | データ解析マニュアル
…
次は、長さ, 重さ, 幅 の値を標準化します。
10cm, 20cm, 30cm, 1kg, 2kg, 3kg のアオリイカを, 数値で並び替えると Max:30 , Min:1 となってしまうので、測定方法ごとにグループ化し, 正規化します。
正規化された値に 10 をかけて 50 を足すと, 学力偏差値でお馴染みの偏差値になります。

fish_data2 = fish_data2 |> 
  group_by(type) |> 
  mutate(size_scl = scale(log(size))[,1]) |> 
  ungroup()
fish_data2
#> # A tibble: 565 × 9
#>    spot   long   lat date       species_j type   size method
#>    <chr> <dbl> <dbl> <date>     <chr>     <chr> <dbl> <chr> 
#>  1 茂木…  130.  32.7 2022-04-29 シロギス  leng…    25 投げ… 
#>  2 茂木…  130.  32.7 2022-04-27 シロギス  leng…    15 投げ… 
#>  3 茂木…  130.  32.7 2022-03-17 シロギス  leng…    15 投げ… 
#>  4 茂木…  130.  32.7 2022-03-03 メジナ    leng…    25 フカ… 
#>  5 茂木…  130.  32.7 2022-01-22 シロギス  leng…    21 投げ… 
#>  6 茂木…  130.  32.7 2022-01-07 カサゴ    leng…    20 ブラ… 
#>  7 茂木…  130.  32.7 2021-12-09 シロギス  leng…    23 投げ… 
#>  8 茂木…  130.  32.7 2021-11-29 ブリ      leng…    60 ルアー
#>  9 茂木…  130.  32.7 2021-11-15 マアジ    leng…    25 サビ… 
#> 10 茂木…  130.  32.7 2021-11-08 マアジ    leng…    20 サビ… 
#> # … with 555 more rows, and 1 more variable: size_scl <dbl>
…
suisan_gps = tibble(spot = "水産学部", 
                    long = 129.86544761304938, lat = 32.786294986775076) |> 
  st_as_sf(coords = c("long", "lat"), crs = st_crs(4326), agr = "constant")

距離を求めるためには、座標参照系を EPSG:2450 (JDG2000, 日本座標系) に変換します。
緯度経度は東距 (northing) と北距 easting(（単位はメートル）に代わります。

spot_gps = spot_gps |> st_transform(st_crs(2450))
suisan_gps = suisan_gps |> st_transform(st_crs(2450))
std = st_distance(spot_gps, suisan_gps) |> as.vector()
spot_info = spot_info |> mutate(dist_from_sui = std)
spot_info
#> # A tibble: 42 × 4
#>     long   lat spot       dist_from_sui
#>    <dbl> <dbl> <chr>              <dbl>
#>  1  130.  32.7 茂木港            10115.
#>  2  130.  32.8 時津八工区         7285.
#>  3  130.  32.8 新長崎漁港        10163.
#>  4  130.  32.7 伊王島            12124.
#>  5  130.  32.8 牧島弁天          10190.
#>  6  130.  32.8 有喜              20774.
#>  7  130.  32.8 千々石            30609.
#>  8  130.  32.7 長崎港             4653.
#>  9  130.  32.9 大瀬戸地磯        27276.
#> 10  130.  32.8 結の浜            12806.
#> # … with 32 more rows
…
上の処理をすると、座標参照系の情報が消えたので、ここで再び付けます。

river_mouth_info = river_mouth_info |> st_as_sf(crs = st_crs(2450))
river_mouth_info
#> Simple feature collection with 42 features and 3 fields
#> Geometry type: POINT
#> Dimension:     XY
#> Bounding box:  xmin: -820809.1 ymin: -318563.7 xmax: -820809.1 ymax: -318563.7
#> Projected CRS: JGD2000 / Japan Plane Rectangular CS VIII
#> # A tibble: 42 × 4
#>    spot                      geometry dist_from_river
#>  * <chr>                  <POINT [m]>           <dbl>
#>  1 三重漁港     (-820809.1 -318563.7)           0.403
#>  2 伊王島       (-818658.1 -331798.2)           5.50 
#>  3 佐世保川河口   (-820048 -280305.1)           9.46 
#>  4 加津佐漁港   (-783625.6 -343734.2)          21.9  
#>  5 千々石       (-779599.8 -326292.3)          18.0  
#>  6 南串（京泊）   (-784919.2 -337018)          16.3  
#>  7 国﨑半島     (-785717.3 -336737.9)          15.5  
#>  8 大瀬戸地磯   (-830591.3 -305298.9)           3.06 
#>  9 子々川       (-814928.6 -314037.7)           0.265
#> 10 小江港       (-815397.5 -326130.3)           0.341
#> # … with 32 more rows, and 1 more variable:
#> #   dist_from_suisan <dbl>
…
