Chapter 6 t 検定 | データ解析マニュアル
…
6.1 必要なパッケージ

library(tidyverse)
library(readxl)
library(broom)

6.2 データの準備

Rの iris8 データで解析を紹介します。
iris は data.frame として定義されているので、as_tibble() を使って tibble のクラスを追加します。

iris = iris |> as_tibble()
iris
#> # A tibble: 150 × 5
#>    Sepal.Length Sepal.Width Petal.Length Petal.Width Species
#>           <dbl>       <dbl>        <dbl>       <dbl> <fct>  
#>  1          5.1         3.5          1.4         0.2 setosa 
#>  2          4.9         3            1.4         0.2 setosa 
#>  3          4.7         3.2          1.3         0.2 setosa 
#>  4          4.6         3.1          1.5         0.2 setosa 
#>  5          5           3.6          1.4         0.2 setosa 
#>  6          5.4         3.9          1.7         0.4 setosa 
#>  7          4.6         3.4          1.4         0.3 setosa 
#>  8          5           3.4          1.5         0.2 setosa 
#>  9          4.4         2.9          1.4         0.2 setosa 
#> 10          4.9         3.1          1.5         0.1 setosa 
#> # … with 140 more rows
…
t(211.54): 検定に使用した自由度（サンプル数の目安）

-13.098: t検定の統計量

P = 0.0000: 結果のP値

6.4 Petal と Sepal の幅の比較

先程の説明は横長のでデータ解析でしたが、tidy データ（縦長）の場合、もっと簡易に検定のコードをくめます。
まず、データを縦長に変換します。

iris_long = iris |> pivot_longer(cols = matches("Sepal|Petal")) |> 
  separate(name, c("part", "measurement"))
iris_long
#> # A tibble: 600 × 4
#>    Species part  measurement value
#>    <fct>   <chr> <chr>       <dbl>
#>  1 setosa  Sepal Length        5.1
#>  2 setosa  Sepal Width         3.5
#>  3 setosa  Petal Length        1.4
#>  4 setosa  Petal Width         0.2
#>  5 setosa  Sepal Length        4.9
#>  6 setosa  Sepal Width         3  
#>  7 setosa  Petal Length        1.4
#>  8 setosa  Petal Width         0.2
#>  9 setosa  Sepal Length        4.7
#> 10 setosa  Sepal Width         3.2
#> # … with 590 more rows
…
H0: 花びらと萼片の幅に違いがない

HA: 花びらと萼片の幅に違いがある

長さと幅のデータが混ざっているので、幅のデータのフィルターを掛けてから解析します。

iris_width = iris_long |> filter(str_detect(measurement, "Width"))
iris_width
#> # A tibble: 300 × 4
#>    Species part  measurement value
#>    <fct>   <chr> <chr>       <dbl>
#>  1 setosa  Sepal Width         3.5
#>  2 setosa  Petal Width         0.2
#>  3 setosa  Sepal Width         3  
#>  4 setosa  Petal Width         0.2
#>  5 setosa  Sepal Width         3.2
#>  6 setosa  Petal Width         0.2
#>  7 setosa  Sepal Width         3.1
#>  8 setosa  Petal Width         0.2
#>  9 setosa  Sepal Width         3.6
#> 10 setosa  Petal Width         0.2
#> # … with 290 more rows
…
