Chapter 16 Wavelet 解析 | データ解析マニュアル
…
16.4 データの前処理

データの読み込みは並列で行うので、map() じゃなくて future_map() を使います。
read_onset() は 研究室の gnnlab パッケージの関数です。

labdatafolder = "~/Lab_Data/kawatea/Oxygen"
dset = tibble(fnames = dir(labdatafolder, pattern = "DO.*arikawa.*csv", full = TRUE)) |> 
  filter(str_detect(fnames, "calib", negate = TRUE))
dset = dset |>
  mutate(data = future_map(fnames, read_onset)) 
dset
#> # A tibble: 327 × 2
#>    fnames                                           data    
#>    <chr>                                            <list>  
#>  1 /home/gnishihara/Lab_Data/kawatea/Oxygen/DO_02_… <tibble>
#>  2 /home/gnishihara/Lab_Data/kawatea/Oxygen/DO_02_… <tibble>
#>  3 /home/gnishihara/Lab_Data/kawatea/Oxygen/DO_03_… <tibble>
#>  4 /home/gnishihara/Lab_Data/kawatea/Oxygen/DO_03_… <tibble>
#>  5 /home/gnishihara/Lab_Data/kawatea/Oxygen/DO_03_… <tibble>
#>  6 /home/gnishihara/Lab_Data/kawatea/Oxygen/DO_03_… <tibble>
#>  7 /home/gnishihara/Lab_Data/kawatea/Oxygen/DO_03_… <tibble>
#>  8 /home/gnishihara/Lab_Data/kawatea/Oxygen/DO_03_… <tibble>
#>  9 /home/gnishihara/Lab_Data/kawatea/Oxygen/DO_03_… <tibble>
#> 10 /home/gnishihara/Lab_Data/kawatea/Oxygen/DO_03_… <tibble>
#> # … with 317 more rows

次はファイル名の処理をします。

dset = dset |> filter(str_detect(fnames, "edge|sand", negate = T)) |> 
  mutate(fnames = basename(fnames)) |> 
  mutate(fnames = str_remove(fnames, ".csv")) |> 
  separate(fnames, into = c("type", "id", "location", "position", "surveydate"))
dset = dset |> unnest(data)

観測期間のデータを読み込んで、観測インターバルを設定します。

surveyperiod = read_csv("~/Lab_Data/kawatea/period_info_220422.csv")
surveyperiod
#> # A tibble: 185 × 5
#>    location  start_date          end_date            comment
#>    <chr>     <dttm>              <dttm>              <chr>  
#>  1 arikawaa… 2017-04-09 00:00:00 2017-05-21 00:00:00 <NA>   
#>  2 arikawag… 2017-04-09 00:00:00 2017-05-21 00:00:00 <NA>   
#>  3 tainoura  2017-04-09 00:00:00 2017-05-21 00:00:00 <NA>   
#>  4 arikawaa… 2017-05-25 00:00:00 2017-06-13 00:00:00 <NA>   
#>  5 arikawag… 2017-05-25 00:00:00 2017-06-13 00:00:00 <NA>   
#>  6 tainoura  2017-05-25 00:00:00 2017-06-13 00:00:00 <NA>   
#>  7 arikawaa… 2017-07-20 00:00:00 2017-08-04 00:00:00 台風の…
#>  8 arikawag… 2017-07-20 00:00:00 2017-08-04 00:00:00 台風の…
#>  9 tainoura  2017-07-20 00:00:00 2017-08-18 00:00:00 <NA>   
#> 10 arikawaa… 2017-08-09 00:00:00 2017-08-18 00:00:00 <NA>   
#> # … with 175 more rows, and 1 more variable: remarks <chr>

surveyperiod = surveyperiod |> mutate(interval = interval(start = start_date, end = end_date))
surveyperiod
#> # A tibble: 185 × 6
#>    location  start_date          end_date            comment
#>    <chr>     <dttm>              <dttm>              <chr>  
#>  1 arikawaa… 2017-04-09 00:00:00 2017-05-21 00:00:00 <NA>   
#>  2 arikawag… 2017-04-09 00:00:00 2017-05-21 00:00:00 <NA>   
#>  3 tainoura  2017-04-09 00:00:00 2017-05-21 00:00:00 <NA>   
#>  4 arikawaa… 2017-05-25 00:00:00 2017-06-13 00:00:00 <NA>   
#>  5 arikawag… 2017-05-25 00:00:00 2017-06-13 00:00:00 <NA>   
#>  6 tainoura  2017-05-25 00:00:00 2017-06-13 00:00:00 <NA>   
#>  7 arikawaa… 2017-07-20 00:00:00 2017-08-04 00:00:00 台風の…
#>  8 arikawag… 2017-07-20 00:00:00 2017-08-04 00:00:00 台風の…
#>  9 tainoura  2017-07-20 00:00:00 2017-08-18 00:00:00 <NA>   
#> 10 arikawaa… 2017-08-09 00:00:00 2017-08-18 00:00:00 <NA>   
#> # … with 175 more rows, and 2 more variables:
#> #   remarks <chr>, interval <Interval>
…
ints = surveyperiod |> pull(interval)
dset = dset |> filter(datetime %within% as.list(ints))

さらに、データの数を求めてフィルタにかけます。
10分間隔で測定しているので、一日あたりに 144 のデータがあります。
条件に合わないデータは外します。

dset = dset |> 
  mutate(date = as_date(datetime)) |> 
  group_by(date, location, position) |> 
  filter(near(n(), 144))
dset
#> # A tibble: 1,239,696 × 9
#> # Groups:   date, location, position [8,609]
#>    type  id    location      position surveydate
#>    <chr> <chr> <chr>         <chr>    <chr>     
#>  1 DO    02    arikawagaramo 0m       170523    
#>  2 DO    02    arikawagaramo 0m       170523    
#>  3 DO    02    arikawagaramo 0m       170523    
#>  4 DO    02    arikawagaramo 0m       170523    
#>  5 DO    02    arikawagaramo 0m       170523    
#>  6 DO    02    arikawagaramo 0m       170523    
#>  7 DO    02    arikawagaramo 0m       170523    
#>  8 DO    02    arikawagaramo 0m       170523    
#>  9 DO    02    arikawagaramo 0m       170523    
#> 10 DO    02    arikawagaramo 0m       170523    
#> # … with 1,239,686 more rows, and 4 more variables:
#> #   datetime <dttm>, mgl <dbl>, temperature <dbl>,
#> #   date <date>
…
